<?xml version="1.0" encoding="UTF-8"?>
<svg width="960px" height="540px" viewBox="0 0 960 540" xmlns="http://www.w3.org/2000/svg" xmlns:xlink="http://www.w3.org/1999/xlink" version="1.1">
 <!-- Generated by Pixelmator Pro 1.6 -->
 <g id="g23">
  <g id="g21">
   <g id="g15"/>
   <g id="g19">
    <path id="Rectangle" d="M0 540 L960 540 960 527 0 527 Z" fill="#ed1c24" fill-opacity="1" stroke="none"/>
   </g>
  </g>
 </g>
</svg>
